Final
…
diff1 represents the difference for automobile, diff2 represents the difference for commercial vehicle and diff3 indicates the difference for all type of car sales.

car_data<-add_column(car_data, Percentage1 = car_data$auto_dom/car_data$auto_imp, .after = "auto_imp")
car_data<-add_column(car_data, Percentage2 = car_data$comm_dom/car_data$comm_imp, .after = "comm_imp")
car_data<-add_column(car_data, Percentage3 = car_data$total_dom/car_data$total_imp, .after = "total_imp")

data_ordered<-arrange(car_data,car_data$brand_name)
incremental_data<-data_ordered%>%group_by(brand_name)%>%summarise(diff1=diff(Percentage1),diff2=diff(Percentage2), diff3=diff(Percentage3))

## `summarise()` regrouping output by 'brand_name' (override with `.groups` argument)

incremental_data<-incremental_data %>% group_by(brand_name) %>% mutate(time = row_number())
incremental_data%>%filter(brand_name=="TOYOTA")

## # A tibble: 71 x 5
## # Groups:   brand_name [1]
##    brand_name  diff1 diff2   diff3  time
##    <chr>       <dbl> <dbl>   <dbl> <int>
##  1 TOYOTA     -0.110     0 -0.0517     1
##  2 TOYOTA     -0.358     0 -0.365      2
##  3 TOYOTA      0.235     0  0.326      3
##  4 TOYOTA      0.641     0  0.268      4
##  5 TOYOTA      0.865     0  1.13       5
##  6 TOYOTA     -0.728     0 -1.05       6
##  7 TOYOTA     -1.12      0 -0.740      7
##  8 TOYOTA      0.499     0  0.139      8
##  9 TOYOTA      2.69      0  2.29       9
## 10 TOYOTA     -2.33      0 -1.46      10
## # ... with 61 more rows
…
